hΜͺ

ymθz
{{Tα
Ώ³Yε
ΰΊήq
βΊa^
ΓcγΔε
RΊO
cKEΎ
αΡLα
φθρη
ϊuqη
ϊuS]
{2

y’mθz
μcυ@
Τcόα
rcqmY
{{FIq
δγΧγ
CΎ
ΨΊγΔΎ


